<?xml version="1.0" encoding="UTF-8" standalone="no"?>
<!-- Created with Inkscape (http://www.inkscape.org/) -->

<svg
   xmlns:dc="http://purl.org/dc/elements/1.1/"
   xmlns:cc="http://creativecommons.org/ns#"
   xmlns:rdf="http://www.w3.org/1999/02/22-rdf-syntax-ns#"
   xmlns:svg="http://www.w3.org/2000/svg"
   xmlns="http://www.w3.org/2000/svg"
   xmlns:sodipodi="http://sodipodi.sourceforge.net/DTD/sodipodi-0.dtd"
   xmlns:inkscape="http://www.inkscape.org/namespaces/inkscape"
   width="32.06094"
   height="58.840019"
   viewBox="0 0 8.4827905 15.568088"
   version="1.1"
   id="svg8"
   inkscape:version="0.92.5 (2060ec1f9f, 2020-04-08)"
   sodipodi:docname="sarah-run-left-3.svg">
  <defs
     id="defs2" />
  <sodipodi:namedview
     id="base"
     pagecolor="#ffffff"
     bordercolor="#666666"
     borderopacity="1.0"
     inkscape:pageopacity="0.0"
     inkscape:pageshadow="2"
     inkscape:zoom="25.172414"
     inkscape:cx="6.7410098"
     inkscape:cy="27.774882"
     inkscape:document-units="px"
     inkscape:current-layer="layer1"
     showgrid="false"
     inkscape:window-width="2226"
     inkscape:window-height="1774"
     inkscape:window-x="3383"
     inkscape:window-y="286"
     inkscape:window-maximized="0"
     inkscape:snap-global="true"
     units="px" />
  <metadata
     id="metadata5">
    <rdf:RDF>
      <cc:Work
         rdf:about="">
        <dc:format>image/svg+xml</dc:format>
        <dc:type
           rdf:resource="http://purl.org/dc/dcmitype/StillImage" />
        <dc:title></dc:title>
      </cc:Work>
    </rdf:RDF>
  </metadata>
  <g
     inkscape:label="Layer 1"
     inkscape:groupmode="layer"
     id="layer1"
     transform="translate(-49.85567,-241.09139)">
    <rect
       style="fill:#e9c6af;fill-opacity:1;stroke:none;stroke-width:0.0087063;stroke-miterlimit:4;stroke-dasharray:none;stroke-opacity:1"
       id="rect1059"
       width="1.3791388"
       height="1.2562649"
       x="-54.563061"
       y="247.44984"
       ry="0.54255682"
       transform="scale(-1,1)" />
    <path
       style="fill:#ff6600;fill-opacity:1;stroke:none;stroke-width:0.02174453px;stroke-linecap:butt;stroke-linejoin:miter;stroke-opacity:1"
       d="m 58.175089,243.54882 c 0.03963,0.45932 -0.09451,0.91353 -0.04798,1.37319 -0.02492,0.64326 -0.153461,1.28107 -0.105316,1.92725 0.03356,0.69775 0.106076,1.39975 -8.61e-4,2.0948 -0.02333,0.4433 0.07337,0.88462 0.06316,1.32497 0.0681,0.3092 0.558852,0.86729 -0.03784,0.89083 -1.128479,0.23822 -2.313,0.18459 -3.42674,-0.10788 -0.256014,-0.2588 0.260829,-0.60047 0.209376,-0.93161 0.121533,-0.78471 0.225032,-1.57262 0.317999,-2.3612 0.02138,-0.88706 0.254935,-1.7643 0.163329,-2.655 -0.0099,-0.52875 0.0063,-1.05791 -0.04086,-1.58582 -0.03746,-0.38996 0.03735,-0.77754 -0.02289,-1.16529 0.0227,-0.52707 0.639441,-0.0535 0.906537,0.0107 0.448156,0.12582 0.98998,0.11825 1.302242,0.52662 0.126854,0.1197 0.279825,0.21772 0.369573,0.37203"
       id="path998"
       inkscape:connector-curvature="0" />
    <ellipse
       style="fill:#ff6600;fill-opacity:1;stroke:none;stroke-width:0.00685494;stroke-miterlimit:4;stroke-dasharray:none;stroke-opacity:1"
       id="path885"
       cx="-54.152603"
       cy="243.74167"
       rx="4.0224881"
       ry="2.6502781"
       transform="scale(-1,1)" />
    <rect
       style="fill:#f4e3d7;fill-opacity:1;stroke:none;stroke-width:0.00720655;stroke-miterlimit:4;stroke-dasharray:none;stroke-opacity:1"
       id="rect880"
       width="6.7205648"
       height="5.0030198"
       x="-57.43079"
       y="242.9317"
       ry="1.6676731"
       transform="scale(-1,1)" />
    <g
       id="g856"
       inkscape:transform-center-x="0.87177859"
       inkscape:transform-center-y="-0.12179706"
       transform="matrix(-0.39960963,-0.91668541,-0.91668541,0.39960963,303.59197,200.97579)">
      <rect
         inkscape:transform-center-y="0.67610321"
         inkscape:transform-center-x="-0.37739793"
         ry="0.30405742"
         transform="matrix(0.85792121,-0.51378127,0.50867052,0.86096127,0,0)"
         y="243.02077"
         x="-79.584946"
         height="2.2000983"
         width="0.89913148"
         id="rect894-6-7"
         style="fill:#917c6f;fill-opacity:1;stroke:none;stroke-width:0.00652341;stroke-miterlimit:4;stroke-dasharray:none;stroke-opacity:1" />
      <ellipse
         ry="0.46283442"
         rx="0.45971289"
         cy="251.54924"
         cx="56.761497"
         id="path941-5"
         style="fill:#f4e3d7;fill-opacity:1;stroke:none;stroke-width:0.00652335;stroke-miterlimit:4;stroke-dasharray:none;stroke-opacity:1" />
    </g>
    <rect
       style="fill:#484537;fill-opacity:1;stroke:none;stroke-width:0.00652339;stroke-miterlimit:4;stroke-dasharray:none;stroke-opacity:1"
       id="rect894-3"
       width="0.898426"
       height="2.201812"
       x="-186.65967"
       y="171.72754"
       transform="matrix(-0.81541996,-0.57886984,-0.57496825,0.81817572,0,0)"
       ry="0.30429426"
       inkscape:transform-center-x="0.47217632"
       inkscape:transform-center-y="0.73762529" />
    <rect
       style="fill:#e9c6af;fill-opacity:1;stroke:none;stroke-width:0.0073203;stroke-miterlimit:4;stroke-dasharray:none;stroke-opacity:1"
       id="rect958-3"
       width="1.4886022"
       height="2.6006749"
       x="22.655714"
       y="256.48178"
       ry="0.30459172"
       transform="matrix(-0.95442165,0.29846157,0.29882263,0.95430867,0,0)"
       inkscape:transform-center-x="0.27610105"
       inkscape:transform-center-y="1.3965425" />
    <path
       style="fill:#ff6600;fill-opacity:1;stroke:none;stroke-width:0.01617851px;stroke-linecap:butt;stroke-linejoin:miter;stroke-opacity:1"
       d="m 50.338079,244.2426 c -0.0066,0.17038 -0.0048,0.34081 0.05381,0.50827 0.04295,0.14368 0.166144,0.27313 0.21837,0.41443 0.01311,0.0625 0.198196,0.12299 0.139345,0.0145 0.04649,-0.17401 0.01962,-0.35463 0.110937,-0.52284 0.06103,-0.0744 0.185077,-0.25537 0.262952,-0.24906 0.06619,0.16341 0.141135,0.33007 0.334712,0.46311 0.100975,0.0506 0.175045,0.21264 0.297272,0.19911 -0.01839,-0.14552 -0.04868,-0.28945 -0.02922,-0.4363 0.05287,-0.18104 0.09466,-0.3885 0.370439,-0.51176 0.12772,-0.1024 0.05438,0.13496 0.172283,0.16436 0.134426,0.15091 0.332198,0.28333 0.574864,0.38111 0.07668,0.0749 0.390387,0.20179 0.275472,0.0273 -0.03095,-0.14962 -0.06624,-0.30043 -0.05639,-0.45022 0.01114,-0.0627 0.1612,-0.27164 0.189035,-0.11813 0.126443,0.14463 0.309591,0.27701 0.35805,0.43982 0.02385,0.0775 0.120545,0.26882 0.247847,0.11922 0.210471,-0.11479 0.328358,-0.29239 0.536509,-0.39348 0.02975,0.13942 0.06067,0.30499 0.294937,0.38874 0.117038,0.0759 0.423443,0.21517 0.480455,0.21486 -0.120684,-0.14594 -0.188209,-0.3053 -0.165734,-0.46609 -0.01089,-0.0738 -0.04681,-0.26489 0.0799,-0.10633 0.193039,0.16011 0.390093,0.33107 0.715295,0.41598 0.222669,0.0614 0.446589,0.12804 0.684582,0.16797 0.07382,-0.0614 -0.203114,-0.19052 -0.266884,-0.2786 -0.105963,-0.14737 -0.27232,-0.27958 -0.36349,-0.43034 -0.02918,-0.14739 -0.292942,-1.54319 -0.349054,-1.68525 -1.159469,-0.0272 -4.474222,-0.23281 -4.967079,0.54928"
       id="path992"
       inkscape:connector-curvature="0"
       sodipodi:nodetypes="cccccccccccccccccccccccccccc" />
    <path
       style="fill:#ff6600;fill-opacity:1;stroke:none;stroke-width:0.02174453px;stroke-linecap:butt;stroke-linejoin:miter;stroke-opacity:1"
       d="m 55.438702,242.68928 c -0.0368,0.65885 -0.192721,1.3044 -0.231936,1.96299 -0.07559,0.56151 -0.02933,1.17289 -0.346589,1.67 -0.179597,0.31843 -0.454196,0.56603 -0.662149,0.86389 0.230967,0.31932 0.657034,0.34948 0.967767,0.55523 0.43349,0.23212 0.916927,0.36017 1.404515,0.40022 0.286525,0.0385 0.362347,-0.25271 0.422029,-0.46559 0.189749,-0.48309 0.549124,-0.87365 0.755317,-1.34728 0.135509,-0.36545 0.06411,-0.76501 0.07117,-1.1458 -0.0067,-0.53925 0.06973,-1.10974 -0.15937,-1.61661 -0.226287,-0.30467 -0.548134,-0.52029 -0.862367,-0.72278 -0.392521,-0.22059 -0.842583,-0.33991 -1.292713,-0.3306"
       id="path994"
       inkscape:connector-curvature="0" />
    <g
       id="g1036"
       transform="matrix(-0.08190642,0,0,0.08246258,62.378178,235.52112)">
      <ellipse
         ry="8.9535294"
         rx="8.6862593"
         cy="125.94749"
         cx="105.57146"
         id="path1000-6"
         style="fill:#241f1c;fill-opacity:1;stroke:none;stroke-width:0.07937501;stroke-miterlimit:4;stroke-dasharray:none;stroke-opacity:1" />
      <circle
         r="3.0735996"
         cy="122.60664"
         cx="102.49787"
         id="path1017"
         style="fill:#e3dedb;fill-opacity:1;stroke:none;stroke-width:0.06890377;stroke-miterlimit:4;stroke-dasharray:none;stroke-opacity:1" />
    </g>
    <g
       transform="matrix(-0.08190642,0,0,0.08246258,60.473653,235.49908)"
       id="g1036-9">
      <ellipse
         ry="8.9535294"
         rx="8.6862593"
         cy="125.94749"
         cx="105.57146"
         id="path1000-6-1"
         style="fill:#241f1c;fill-opacity:1;stroke:none;stroke-width:0.07937501;stroke-miterlimit:4;stroke-dasharray:none;stroke-opacity:1" />
      <circle
         r="3.0735996"
         cy="122.60664"
         cx="102.49787"
         id="path1017-2"
         style="fill:#e3dedb;fill-opacity:1;stroke:none;stroke-width:0.06890377;stroke-miterlimit:4;stroke-dasharray:none;stroke-opacity:1" />
    </g>
    <g
       id="g840"
       inkscape:transform-center-x="-0.67442298"
       inkscape:transform-center-y="3.5660214"
       transform="matrix(-0.77344613,0.63386204,0.63386204,0.77344613,-63.470499,22.672591)">
      <rect
         transform="matrix(0.99894259,-0.04597495,0.04535818,0.99897079,0,0)"
         ry="0.30458903"
         y="256.21997"
         x="42.711945"
         height="2.4243367"
         width="1.7294207"
         id="rect975-5"
         style="fill:#241f1c;fill-opacity:1;stroke:none;stroke-width:0.00761326;stroke-miterlimit:4;stroke-dasharray:none;stroke-opacity:1" />
      <path
         sodipodi:nodetypes="csccc"
         inkscape:connector-curvature="0"
         id="rect1061"
         d="m 54.361216,255.54967 c 0,0 1.297503,0.0325 1.780691,0.42857 0.145226,0.11908 0.116089,0.44179 0.116089,0.44179 h -1.904524 z"
         style="fill:#241f1c;fill-opacity:1;stroke:none;stroke-width:0.00492831;stroke-miterlimit:4;stroke-dasharray:none;stroke-opacity:1" />
    </g>
    <rect
       style="fill:#f4e3d7;fill-opacity:1;stroke:none;stroke-width:0.0073203;stroke-miterlimit:4;stroke-dasharray:none;stroke-opacity:1"
       id="rect958"
       width="1.4888055"
       height="2.6003242"
       x="-222.30969"
       y="131.51709"
       ry="0.30455065"
       transform="matrix(-0.67873822,-0.7343803,-0.73569128,0.67731702,0,0)"
       inkscape:transform-center-x="0.53284709"
       inkscape:transform-center-y="1.1717432" />
    <g
       id="g860"
       transform="matrix(-1,0,0,1,108.19413,0)">
      <rect
         ry="0.40873691"
         y="248.11105"
         x="52.930557"
         height="2.6447682"
         width="2.6050396"
         id="rect889"
         style="fill:#6c5353;fill-opacity:1;stroke:none;stroke-width:0.00590624;stroke-miterlimit:4;stroke-dasharray:none;stroke-opacity:1" />
      <path
         sodipodi:nodetypes="ccccc"
         inkscape:connector-curvature="0"
         id="rect891"
         d="m 53.061902,250.18278 2.451802,0.11014 1.576159,1.3885 c -1.495892,1.06525 -3.976882,0.83016 -5.604119,0.0882 z"
         style="fill:#ff0000;fill-opacity:1;stroke:none;stroke-width:0.00652335;stroke-miterlimit:4;stroke-dasharray:none;stroke-opacity:1" />
    </g>
    <g
       id="g844"
       inkscape:transform-center-x="0.72867283"
       inkscape:transform-center-y="2.9454981"
       transform="matrix(-0.76129654,0.64840387,0.64840387,0.76129654,-72.403536,25.447759)">
      <rect
         transform="matrix(0.9991283,0.04174506,-0.04118484,0.99915154,0,0)"
         ry="0.30458978"
         y="251.47795"
         x="62.999176"
         height="2.4243429"
         width="1.7294164"
         id="rect975"
         style="fill:#483e37;fill-opacity:1;stroke:none;stroke-width:0.00761326;stroke-miterlimit:4;stroke-dasharray:none;stroke-opacity:1" />
      <path
         sodipodi:nodetypes="csccc"
         inkscape:connector-curvature="0"
         id="rect1061-7"
         d="m 52.523554,255.54981 c 0,0 1.272349,0.0365 1.755536,0.43247 0.145226,0.11908 0.116089,0.44179 0.116089,0.44179 l -1.914199,-0.002 z"
         style="fill:#483e37;fill-opacity:1;stroke:none;stroke-width:0.00492831;stroke-miterlimit:4;stroke-dasharray:none;stroke-opacity:1" />
    </g>
    <rect
       style="fill:#ac9d93;fill-opacity:1;stroke:none;stroke-width:0.0065234;stroke-miterlimit:4;stroke-dasharray:none;stroke-opacity:1"
       id="rect894"
       width="0.89878321"
       height="2.2009444"
       x="84.049828"
       y="239.40399"
       transform="matrix(-0.84644147,0.53248178,0.5278548,0.84933463,0,0)"
       ry="0.30417436"
       inkscape:transform-center-x="-0.42644495"
       inkscape:transform-center-y="0.75910528" />
    <g
       id="g848"
       inkscape:transform-center-x="0.14026185"
       inkscape:transform-center-y="0.94739174"
       transform="matrix(-0.96147506,-0.27489218,-0.27489218,0.96147506,175.07364,23.981177)">
      <rect
         inkscape:transform-center-y="0.70528004"
         inkscape:transform-center-x="0.065674075"
         ry="0.30456287"
         transform="matrix(0.99252737,0.12202224,-0.12040581,0.99272476,0,0)"
         y="241.52083"
         x="81.726898"
         height="2.2037556"
         width="0.89762461"
         id="rect894-6"
         style="fill:#917c6f;fill-opacity:1;stroke:none;stroke-width:0.00652336;stroke-miterlimit:4;stroke-dasharray:none;stroke-opacity:1" />
      <ellipse
         ry="0.46283442"
         rx="0.45971289"
         cy="251.92392"
         cx="52.230042"
         id="path941"
         style="fill:#f4e3d7;fill-opacity:1;stroke:none;stroke-width:0.00652335;stroke-miterlimit:4;stroke-dasharray:none;stroke-opacity:1" />
    </g>
  </g>
</svg>
